Stratigraphic data in R
…
  Joe Roe
https://joeroe.io

📦 stratigraphr

https://stratigraphr.joeroe.io

📦 c14

https://c14.joeroe.io

library(readr)
read_csv("example_data/harris12.csv")

# A tibble: 10 × 4
  context above below equal
  <chr>   <dbl> <chr> <dbl>
1 1          NA 2,3,4    NA
2 2           1 5        NA
3 3           1 5        NA
# … with 7 more rows

library(stratigraphr)
read_lst("example_data/bonn.lst")

# A tibble: 19 × 5
  name  above     contemporary_with equal_to below    
  <chr> <list>    <chr>             <chr>    <list>   
1 +     <chr [1]> <NA>              <NA>     <chr [4]>
2 -     <chr [5]> <NA>              <NA>     <chr [1]>
3 1     <chr [1]> <NA>              <NA>     <chr [1]>
# … with 16 more rows
…
library(c14)
library(dplyr)
ppnd %>% 
  filter(site == "Ganj Dareh") %>% 
  mutate(cal = c14_calibrate(cra, error))

# A tibble: 9 × 11
  lab_id   site    latit…¹ longi…² context   cra error d13c 
  <chr>    <chr>     <dbl>   <dbl> <chr>   <int> <int> <chr>
1 GaK 807  Ganj D…    34.2    47.5 Niv. E… 10400   150 <NA> 
2 OxA 2099 Ganj D…    34.2    47.5 GD.Fl.…  8840   110 <NA> 
3 OxA 2100 Ganj D…    34.2    47.5 GD.Fl.…  9010   110 <NA> 
# … with 6 more rows, 3 more variables: material <chr>,
#   references <chr>, cal <cal>, and abbreviated variable
#   names ¹​latitude, ²​longitude
…
